0000011 AN0 16,574,151,87,238,63,71,134,372,63.98%
0000012 AN0 16,669,184,106,290,110,75,185,475,61.05%
0000013 AN0 16,1060,167,209,376,112,116,228,604,62.25%
0000014 AN0 16,810,180,95,275,123,93,216,491,56.01%
0000015 AN0 16,1028,230,147,377,99,94,193,570,66.14%
0000016 AN0 16,858,169,147,316,149,141,290,606,52.15%
0000017 AN0 16,869,191,151,342,139,148,287,629,54.37%
0000018 AN0 16,1061,222,197,419,125,141,266,685,61.17%
0000019 AN0 16,559,111,104,215,60,91,151,366,58.74%
0000020 AN0 16,1118,200,212,412,125,149,274,686,60.06%
0000021 AN0 16,896,199,178,377,85,111,196,573,65.79%
0000022 AN0 16,750,131,129,260,93,145,238,498,52.21%
0000023 AN0 16,359,48,63,111,63,62,125,236,47.03%
0000024 AN0 18,675,140,124,264,92,118,210,474,55.70%
0000025 AN0 18,992,176,164,340,132,160,292,632,53.80%
0000026 AN0 18,1106,236,187,423,126,160,286,709,59.66%
0000027 AN0 18,1390,254,272,526,201,267,468,994,52.92%
0000028 AN0 18,967,142,212,354,120,205,325,679,52.14%
0000029 AN0 18,850,138,192,330,130,142,272,602,54.82%
0000030 AN0 18,951,206,147,353,143,175,318,671,52.61%
0000031 AN0 18,1101,213,197,410,179,209,388,798,51.38%
0000032 AN0 18,770,138,130,268,100,99,199,467,57.39%
0000033 AN0 18,1006,198,194,392,154,171,325,717,54.67%
0000034 AN0 18,1300,261,225,486,178,215,393,879,55.29%
0000035 AN0 18,386,79,55,134,51,60,111,245,54.69%
0000036 AN0 19,288,64,73,137,29,39,68,205,66.83%
0000037 AN0 19,770,139,132,271,92,139,231,502,53.98%
0000038 AN0 19,586,126,103,229,106,73,179,408,56.13%
0000039 AN0 19,890,158,164,322,155,173,328,650,49.54%
0000040 AN0 21,576,136,85,221,106,104,210,431,51.28%
0000041 AN0 21,905,258,126,384,174,164,338,722,53.19%
0000042 AN0 21,994,174,187,361,150,216,366,727,49.66%
0000043 AN0 21,1183,248,216,464,161,185,346,810,57.28%
0000044 AN0 21,1215,264,214,478,226,180,406,884,54.07%
0000045 AN0 21,1078,206,222,428,148,194,342,770,55.58%
0000046 AN0 22,310,64,48,112,62,56,118,230,48.70%
0000047 AN0 22,1006,189,194,383,181,218,399,782,48.98%
0000048 AN0 22,335,60,60,120,55,80,135,255,47.06%
0000049 AN0 23,608,119,121,240,88,103,191,431,55.68%
0000050 AN0 23,740,195,117,312,116,101,217,529,58.98%
0000051 AN0 23,1465,250,273,523,182,240,422,945,55.34%
0000052 AN0 23,858,174,121,295,112,121,233,528,55.87%
0000053 AN0 23,912,210,139,349,155,120,275,624,55.93%
0000054 AN0 23,921,161,160,321,174,168,342,663,48.42%
0000055 AN0 23,400,113,72,185,69,56,125,310,59.68%
0000056 AN0 23,343,64,69,133,48,53,101,234,56.84%
0000057 AN0 23,815,183,136,319,116,142,258,577,55.29%
0000058 AN0 27,1427,287,253,540,242,237,479,1019,52.99%
0000059 AN0 27,1195,254,210,464,144,163,307,771,60.18%
0000060 AN0 30,570,114,96,210,85,101,186,396,53.03%
0000061 AN0 32,632,130,129,259,74,97,171,430,60.23%
0000062 AN0 33,572,109,85,194,99,121,220,414,46.86%
0000103 CD5 70,440,105,56,161,100,52,152,313,51.44%
0000106 CL0 75,945,134,189,323,173,239,412,735,43.95%
0000107 CL0 75,1005,172,204,376,200,231,431,807,46.59%
0000108 CL0 75,845,167,182,349,157,197,354,703,49.64%
0000109 CL0 75,622,125,107,232,132,147,279,511,45.40%
0000110 CL0 75,729,122,136,258,107,201,308,566,45.58%
0000111 CL0 75,947,189,182,371,201,211,412,783,47.38%
0000112 CL0 75,689,155,120,275,148,157,305,580,47.41%
0000113 CL0 75,878,161,184,345,126,229,355,700,49.29%
0000114 CL0 75,814,157,180,337,162,180,342,679,49.63%
0000115 CO5 80,534,89,77,166,93,121,214,380,43.68%
0000116 CO0 87,893,165,172,337,126,176,302,639,52.74%
0000117 CO0 87,1383,270,213,483,250,267,517,1000,48.30%
0000118 CO0 87,918,156,234,390,141,189,330,720,54.17%
0000119 CO0 87,1024,217,176,393,196,166,362,755,52.05%
0000120 CO0 87,1252,259,270,529,143,186,329,858,61.66%
0000121 CO0 87,1039,177,178,355,175,176,351,706,50.28%
0000122 CO0 87,966,203,156,359,177,177,354,713,50.35%
0000123 CO0 87,728,151,104,255,141,97,238,493,51.72%
0000124 CO0 87,673,135,131,266,91,97,188,454,58.59%
0000125 CO0 87,931,199,162,361,166,159,325,686,52.62%
0000126 CO0 87,875,180,190,370,165,138,303,673,54.98%
0000127 CO0 87,941,193,164,357,169,176,345,702,50.85%
0000128 CO0 87,931,191,201,392,184,164,348,740,52.97%
0000129 CO0 87,914,186,147,333,159,159,318,651,51.15%
0000130 CO0 87,645,119,99,218,120,93,213,431,50.58%
0000131 CO0 87,983,161,192,353,123,176,299,652,54.14%
0000132 CO0 87,872,166,183,349,145,168,313,662,52.72%
0000133 CO0 87,996,154,216,370,209,221,430,800,46.25%
0000134 CO0 87,940,170,176,346,179,207,386,732,47.27%
0000135 CO0 87,1001,191,172,363,202,196,398,761,47.70%
0000136 CO0 87,664,101,153,254,77,104,181,435,58.39%
0000137 CO0 87,845,204,146,350,140,137,277,627,55.82%
0000138 CO0 87,877,138,200,338,181,170,351,689,49.06%
0000139 CO0 87,1050,179,197,376,203,189,392,768,48.96%
0000140 CO0 87,1004,167,195,362,225,184,409,771,46.95%
0000141 CO0 87,848,161,161,322,134,158,292,614,52.44%
0000142 CO0 87,858,140,147,287,157,203,360,647,44.36%
0000143 CO0 87,882,155,166,321,195,187,382,703,45.66%
0000144 CO0 87,1113,214,221,435,169,205,374,809,53.77%
0000145 CO0 87,857,182,147,329,169,159,328,657,50.08%
0000146 CO0 87,579,105,106,211,109,140,249,460,45.87%
0000147 CO0 87,935,194,193,387,159,167,326,713,54.28%
0000148 CO0 87,850,195,162,357,123,169,292,649,55.01%
0000149 CO0 87,857,187,132,319,115,120,235,554,57.58%
0000150 CO0 87,718,139,145,284,104,113,217,501,56.69%
0000151 CO0 87,880,156,190,346,155,187,342,688,50.29%
0000152 CO0 87,813,161,134,295,147,158,305,600,49.17%
0000153 CO0 87,942,121,173,294,149,164,313,607,48.43%
0000154 CO0 87,1074,159,190,349,196,217,413,762,45.80%
0000155 CO0 87,705,160,160,320,115,149,264,584,54.79%
0000156 CO0 87,858,173,154,327,170,195,365,692,47.25%
0000157 CO0 87,780,113,150,263,142,180,322,585,44.96%
0000158 CO0 87,722,135,153,288,126,135,261,549,52.46%
0000159 CO0 87,842,139,169,308,140,187,327,635,48.50%
0000160 CO0 87,984,168,187,355,180,243,423,778,45.63%
0000161 CO0 87,823,128,164,292,113,168,281,573,50.96%
0000162 CO0 87,859,163,169,332,115,182,297,629,52.78%
0000163 CO0 87,941,182,198,380,123,162,285,665,57.14%
0000164 CO0 87,1020,177,172,349,157,175,332,681,51.25%
0000165 CO0 87,357,64,70,134,56,76,132,266,50.38%
0000166 CO0 87,1006,162,200,362,146,115,261,623,58.11%
0000167 CO0 87,1386,227,262,489,165,170,335,824,59.34%
0000168 CO0 87,645,114,116,230,81,90,171,401,57.36%
0000169 CO0 87,1180,214,192,406,222,179,401,807,50.31%
0000170 CO0 87,1093,209,206,415,157,156,313,728,57.01%
0000171 CO0 87,663,125,122,247,135,132,267,514,48.05%
0000172 CO0 87,718,138,140,278,113,106,219,497,55.94%
0000173 CO0 87,1120,179,185,364,164,175,339,703,51.78%
0000174 CO0 87,1002,197,215,412,148,173,321,733,56.21%
0000175 CO0 87,905,160,167,327,167,170,337,664,49.25%
0000176 CO0 87,953,177,174,351,180,180,360,711,49.37%
0000177 CO0 87,683,120,132,252,98,137,235,487,51.75%
0000178 CO0 88,490,76,84,160,88,124,212,372,43.01%
0000179 CO0 89,782,139,130,269,146,154,300,569,47.28%
0000180 CO0 89,815,117,175,292,143,180,323,615,47.48%
0000181 CO0 89,639,90,160,250,119,120,239,489,51.12%
0000182 CO0 89,861,129,187,316,166,178,344,660,47.88%
0000183 WC5 96,1500,232,342,574,239,349,588,1162,49.40%
0000184 SN5 96,662,134,152,286,108,151,259,545,52.48%
0000185 SN5 96,866,136,250,386,113,193,306,692,55.78%
0000186 SN5 96,806,126,214,340,97,152,249,589,57.72%
0000187 SN5 96,1064,184,249,433,166,257,423,856,50.58%
0000188 WC5 96,471,76,108,184,92,107,199,383,48.04%
0000189 WC5 96,1087,221,216,437,183,241,424,861,50.75%
0000190 WC5 96,1589,217,359,576,240,438,678,1254,45.93%
0000191 PH5 101,601,71,206,277,33,119,152,429,64.57%
0000192 PH5 101,941,166,212,378,79,135,214,592,63.85%
0000193 PO5 101,782,165,162,327,102,121,223,550,59.45%
0000194 PO5 101,1156,292,201,493,179,188,367,860,57.33%
0000195 WC5 101,550,89,119,208,79,150,229,437,47.60%
0000248 ER5 112,483,116,117,233,66,73,139,372,62.63%
0000249 ER5 112,1405,308,331,639,173,267,440,1079,59.22%
0000250 ER5 112,802,185,222,407,114,108,222,629,64.71%
0000251 NR5 112,948,205,139,344,126,93,219,563,61.10%
0000252 RW5 112,994,191,131,322,179,112,291,613,52.53%
0000253 ES5 115,902,175,172,347,142,162,304,651,53.30%
0000254 ES5 115,1558,321,271,592,217,288,505,1097,53.97%
0000255 ES5 115,1438,299,260,559,205,238,443,1002,55.79%
0000256 ES5 115,1032,246,170,416,168,148,316,732,56.83%
0000257 ES5 115,1394,195,290,485,199,276,475,960,50.52%
0000258 GT5 125,891,180,154,334,160,151,311,645,51.78%
0000259 GT5 125,980,187,188,375,115,152,267,642,58.41%
0000260 GT5 125,1346,232,255,487,206,271,477,964,50.52%
0000261 GT5 125,954,195,168,363,129,142,271,634,57.26%
0000276 LA0 135,1513,200,338,538,202,430,632,1170,45.98%
0000277 LA0 135,1686,225,393,618,277,399,676,1294,47.76%
0000278 LA0 135,2249,299,594,893,284,589,873,1766,50.57%
0000279 LA0 135,771,104,191,295,102,210,312,607,48.60%
0000280 LA0 137,1064,206,267,473,119,191,310,783,60.41%
0000281 LA0 137,790,162,175,337,136,200,336,673,50.07%
0000282 LA0 137,966,177,227,404,118,190,308,712,56.74%
0000283 LA0 137,1041,180,245,425,144,210,354,779,54.56%
0000284 LA0 137,1083,226,240,466,153,206,359,825,56.48%
0000285 LA0 137,1620,248,367,615,239,395,634,1249,49.24%
0000286 LA0 137,930,134,235,369,143,218,361,730,50.55%
0000287 LA0 137,877,128,191,319,137,219,356,675,47.26%
0000288 LA0 137,914,152,198,350,170,203,373,723,48.41%
0000289 LA0 137,1302,224,272,496,215,281,496,992,50.00%
0000290 LA0 137,225,28,59,87,39,56,95,182,47.80%
0000291 PH5 139,714,99,172,271,101,208,309,580,46.72%
0000300 MV5 152,659,162,115,277,101,91,192,469,59.06%
0000301 MV5 152,647,171,117,288,91,87,178,466,61.80%
0000302 VH5 152,613,118,87,205,101,90,191,396,51.77%
0000303 VH5 152,874,178,161,339,135,145,280,619,54.77%
0000304 MZ0 155,936,210,189,399,109,112,221,620,64.35%
0000305 MZ0 155,735,169,154,323,91,139,230,553,58.41%
0000306 MZ0 155,919,194,193,387,140,152,292,679,57.00%
0000307 MZ0 155,884,186,189,375,127,135,262,637,58.87%
0000308 MZ0 155,824,156,160,316,118,121,239,555,56.94%
0000309 MZ0 155,535,102,115,217,86,84,170,387,56.07%
0000310 MZ0 157,930,181,206,387,135,153,288,675,57.33%
0000311 MZ0 157,800,169,171,340,112,155,267,607,56.01%
0000312 MZ0 157,730,153,145,298,115,130,245,543,54.88%
0000313 MZ0 157,1013,192,180,372,205,201,406,778,47.81%
0000314 MZ0 157,420,86,71,157,89,77,166,323,48.61%
0000315 MZ0 157,405,88,67,155,60,84,144,299,51.84%
0000316 MZ0 157,294,43,47,90,73,59,132,222,40.54%
0000317 MZ0 159,303,46,82,128,50,57,107,235,54.47%
0000318 MZ0 159,321,63,57,120,64,90,154,274,43.80%
0000319 MZ0 159,353,61,84,145,76,72,148,293,49.49%
0000320 MZ0 161,507,78,108,186,76,121,197,383,48.56%
0000321 MZ0 161,290,49,60,109,68,60,128,237,45.99%
0000322 MZ0 161,551,99,122,221,94,143,237,458,48.25%
0000323 MZ0 162,831,157,162,319,99,163,262,581,54.91%
0000324 MZ0 163,1308,225,279,504,186,293,479,983,51.27%
0000325 MZ0 164,929,179,173,352,171,212,383,735,47.89%
0000326 MZ0 164,827,155,182,337,121,165,286,623,54.09%
0000327 MZ0 164,927,186,197,383,142,189,331,714,53.64%
0000328 MZ0 164,988,180,201,381,153,235,388,769,49.54%
0000329 MZ0 165,471,74,99,173,64,107,171,344,50.29%
0000330 MZ0 165,622,99,136,235,101,163,264,499,47.09%
0000331 MZ0 165,683,111,123,234,119,152,271,505,46.34%
0000332 MZ0 166,852,155,159,314,132,167,299,613,51.22%
0000333 MZ0 166,922,157,189,346,146,118,264,610,56.72%
0000334 MZ0 166,656,122,121,243,149,111,260,503,48.31%
0000335 NI5 167,1044,207,158,365,154,124,278,643,56.77%
0000336 NI5 167,1214,235,209,444,199,215,414,858,51.75%
0000337 PB5 167,604,113,103,216,52,75,127,343,62.97%
0000338 PB5 167,789,169,126,295,97,97,194,489,60.33%
0000339 PB5 167,1100,218,172,390,163,145,308,698,55.87%
0000340 PB5 167,868,197,105,302,132,101,233,535,56.45%
0000341 PB5 167,557,97,93,190,67,68,135,325,58.46%
0000342 PB5 167,354,103,51,154,51,29,80,234,65.81%
0000371 PB0 187,976,226,172,398,136,155,291,689,57.76%
0000372 PB0 187,673,156,140,296,89,93,182,478,61.92%
0000373 PB0 187,1001,191,160,351,127,135,262,613,57.26%
0000374 PB0 187,789,147,139,286,123,124,247,533,53.66%
0000375 PB0 187,892,179,130,309,133,117,250,559,55.28%
0000376 PB0 187,1003,219,170,389,143,122,265,654,59.48%
0000377 PB0 187,1206,236,180,416,153,151,304,720,57.78%
0000378 PB0 187,881,217,127,344,152,134,286,630,54.60%
0000379 PB0 187,1007,194,208,402,107,190,297,699,57.51%
0000380 PB0 187,1236,265,208,473,188,244,432,905,52.27%
0000381 PB0 187,887,166,146,312,133,95,228,540,57.78%
0000382 PB0 187,991,271,126,397,175,120,295,692,57.37%
0000383 PB0 187,1006,224,160,384,158,148,306,690,55.65%
0000384 PB0 187,957,220,174,394,110,120,230,624,63.14%
0000385 PB0 188,452,71,71,142,74,78,152,294,48.30%
0000386 PB0 188,646,136,110,246,92,115,207,453,54.30%
0000387 PB0 188,851,163,183,346,99,118,217,563,61.46%
0000388 PB0 189,1455,273,253,526,223,262,485,1011,52.03%
0000389 PB0 189,339,58,60,118,42,54,96,214,55.14%
0000390 PB0 192,1280,240,228,468,168,209,377,845,55.38%
0000391 PB0 192,818,207,132,339,103,114,217,556,60.97%
0000392 PB0 192,1155,246,260,506,109,173,282,788,64.21%
0000393 PB0 192,595,116,104,220,88,87,175,395,55.70%
0000394 PB0 192,991,177,182,359,113,205,318,677,53.03%
0000395 PB0 192,1106,272,193,465,149,153,302,767,60.63%
0000396 PB0 195,582,156,112,268,107,62,169,437,61.33%
0000397 PB0 195,796,155,105,260,108,132,240,500,52.00%
0000398 PB0 195,859,171,172,343,101,149,250,593,57.84%
0000399 PB0 195,1042,224,170,394,194,155,349,743,53.03%
0000400 PB5 198,392,71,68,139,57,56,113,252,55.16%
0000401 PH0 207,1097,208,219,427,154,187,341,768,55.60%
0000402 PH0 207,1143,198,202,400,166,197,363,763,52.42%
0000403 PH0 207,1352,205,301,506,205,337,542,1048,48.28%
0000404 PH0 207,1362,205,261,466,232,347,579,1045,44.59%
0000405 PH0 207,815,134,178,312,122,214,336,648,48.15%
0000406 PH0 207,943,167,200,367,179,198,377,744,49.33%
0000407 PH0 207,1295,233,262,495,253,255,508,1003,49.35%
0000408 PH0 207,885,173,169,342,187,184,371,713,47.97%
0000409 PH0 207,807,157,170,327,150,163,313,640,51.09%
0000410 PH0 207,1041,246,213,459,123,139,262,721,63.66%
0000411 PH0 207,1099,224,211,435,163,177,340,775,56.13%
0000412 PH0 207,879,203,195,398,150,163,313,711,55.98%
0000413 PH0 207,579,113,111,224,72,100,172,396,56.57%
0000414 PH0 207,1360,232,293,525,211,261,472,997,52.66%
0000415 PH0 207,906,184,204,388,161,202,363,751,51.66%
0000416 PH0 207,1145,210,220,430,152,162,314,744,57.80%
0000417 PH0 207,1240,249,291,540,153,222,375,915,59.02%
0000418 PH0 207,939,209,180,389,126,130,256,645,60.31%
0000419 PH0 209,1068,160,242,402,150,254,404,806,49.88%
0000420 PH5 210,741,152,154,306,97,121,218,524,58.40%
0000421 WC5 210,932,147,214,361,147,216,363,724,49.86%
0000484 SN5 231,858,145,218,363,125,191,316,679,53.46%
0000485 SP0 232,857,172,119,291,134,123,257,548,53.10%
0000486 SP0 232,988,192,203,395,91,117,208,603,65.51%
0000487 SP0 232,557,112,96,208,65,78,143,351,59.26%
0000488 SP0 232,630,117,126,243,63,93,156,399,60.90%
0000489 SP0 232,930,177,131,308,139,161,300,608,50.66%
0000490 SP0 232,912,182,136,318,121,131,252,570,55.79%
0000491 SP0 232,1051,203,226,429,94,141,235,664,64.61%
0000492 SP0 232,581,115,110,225,71,93,164,389,57.84%
0000493 SP0 232,1043,201,123,324,167,121,288,612,52.94%
0000494 SP0 232,942,171,155,326,146,163,309,635,51.34%
0000531 WC0 247,1442,268,310,578,174,252,426,1004,57.57%
0000532 WC0 247,894,153,160,313,159,158,317,630,49.68%
0000533 WC0 247,808,144,170,314,136,180,316,630,49.84%
0000534 WC0 247,616,103,112,215,98,127,225,440,48.86%
0000535 WC0 247,372,65,83,148,62,97,159,307,48.21%
0000536 WC0 247,1152,192,264,456,179,232,411,867,52.60%
0000537 WC0 247,477,81,98,179,98,109,207,386,46.37%
0000538 WC0 247,738,105,153,258,132,201,333,591,43.65%
0000539 WC0 247,636,91,107,198,136,151,287,485,40.82%
0000540 WC0 247,693,120,120,240,119,172,291,531,45.20%
0000541 WC0 247,1027,189,177,366,166,197,363,729,50.21%
0000542 WC0 247,797,116,189,305,99,176,275,580,52.59%
0000543 WC0 247,1007,162,223,385,156,209,365,750,51.33%
0000544 WC0 247,883,126,182,308,109,223,332,640,48.13%
0000545 WC0 248,583,94,133,227,98,136,234,461,49.24%
0000546 WC0 248,1237,247,206,453,208,265,473,926,48.92%
0000547 WC0 248,1329,231,302,533,189,258,447,980,54.39%
0000548 WC0 248,434,91,111,202,54,69,123,325,62.15%
0000549 WC0 248,1132,217,255,472,124,206,330,802,58.85%
0000550 WC0 248,1361,235,274,509,154,240,394,903,56.37%
0000551 WC0 248,900,154,199,353,117,178,295,648,54.48%
0000552 WC0 248,867,174,169,343,142,205,347,690,49.71%
0000553 WC0 248,683,102,162,264,95,212,307,571,46.23%
0000554 WC0 248,969,157,231,388,142,223,365,753,51.53%
0000555 WC0 248,959,140,235,375,130,256,386,761,49.28%
0000556 WC0 248,1430,250,290,540,204,286,490,1030,52.43%
0000557 WC0 248,557,102,122,224,70,121,191,415,53.98%
0000558 WC0 248,921,189,165,354,104,91,195,549,64.48%
0000559 WC0 248,1198,167,277,444,152,265,417,861,51.57%
0000560 WC0 248,1737,240,619,859,138,383,521,1380,62.25%
0000561 WC0 248,1548,156,586,742,102,345,447,1189,62.41%
0000562 WC0 248,1763,183,614,797,130,459,589,1386,57.50%
0000563 WC0 248,1207,96,438,534,100,355,455,989,53.99%
0000564 WC0 248,1204,97,422,519,84,379,463,982,52.85%
0000565 WC0 249,787,115,163,278,138,195,333,611,45.50%
0000566 WC0 249,736,123,148,271,123,168,291,562,48.22%
0000567 WC0 249,871,161,155,316,155,200,355,671,47.09%
0000568 WC0 249,800,148,152,300,146,192,338,638,47.02%
0000569 WC0 249,974,154,223,377,145,239,384,761,49.54%
0000570 WC0 249,1061,159,241,400,145,273,418,818,48.90%
0000571 WC0 249,850,110,150,260,149,254,403,663,39.22%
0000572 WC0 249,673,95,131,226,115,170,285,511,44.23%
0000573 WC0 249,864,174,159,333,133,239,372,705,47.23%
0000574 WC0 250,699,94,169,263,89,219,308,571,46.06%
0000575 WC0 250,274,36,71,107,47,74,121,228,46.93%
0000576 WC0 253,447,80,120,200,54,96,150,350,57.14%
0009577 AH5 1,0,0,0,0,0,0,0,0,#DIV/0!
0009578 AH5 2,335,0,120,120,0,156,156,276,43.48%
0009579 AH5 3,73,0,24,24,0,24,24,48,50.00%
0009580 AH5 4,56,0,14,14,0,28,28,42,33.33%
0009581 AH5 5,0,0,0,0,0,0,0,0,#DIV/0!
0009582 AH5 6,435,0,118,118,0,223,223,341,34.60%
0009583 AH5 7,0,0,0,0,0,0,0,0,#DIV/0!
0009584 PH5 7,15,0,7,7,0,8,8,15,46.67%
0009585 AH5 8,575,0,186,186,0,279,279,465,40.00%
0009586 AH5 9,152,0,58,58,0,60,60,118,49.15%
0009587 AH5 9,35,0,12,12,0,13,13,25,48.00%
0009588 LA5 10,6,0,4,4,0,1,1,5,80.00%
0009589 PH5 10,0,0,0,0,0,0,0,0,#DIV/0!
0009590 AH5 11,2,0,2,2,0,3,3,5,40.00%
0009591 AH5 12,0,0,0,0,0,0,0,0,#DIV/0!
0009597 AN0 17,79,0,34,34,0,7,7,41,82.93%
0009598 AN0 18,443,0,172,172,0,137,137,309,55.66%
0009599 AN0 18,89,0,31,31,0,18,18,49,63.27%
0009600 AN0 19,105,0,30,30,0,26,26,56,53.57%
0009601 AN0 20,0,0,0,0,0,0,0,0,#DIV/0!
0009602 AN0 21,193,0,69,69,0,62,62,131,52.67%
0009603 AN0 22,34,0,17,17,0,4,4,21,80.95%
0009604 AN0 23,575,0,220,220,0,152,152,372,59.14%
0009605 AN0 23,483,0,163,163,0,139,139,302,53.97%
0009606 AN0 24,22,0,11,11,0,1,1,12,91.67%
0009607 AN0 24,211,0,65,65,0,65,65,130,50.00%
0009608 AN0 25,1,0,0,0,0,1,1,1,0.00%
0009609 AN0 26,0,0,0,0,0,0,0,0,#DIV/0!
0009610 AN0 28,0,0,0,0,0,0,0,0,#DIV/0!
0009611 AN0 29,274,0,95,95,0,77,77,172,55.23%
0009612 AN0 31,261,0,85,85,0,95,95,180,47.22%
0009650 CD5 71,0,0,0,0,0,0,0,0,#DIV/0!
0009651 NI5 71,8,0,1,1,0,4,4,5,20.00%
0009655 CL0 76,53,0,16,16,0,26,26,42,38.10%
0009662 PB5 79,7,0,3,3,0,4,4,7,42.86%
0009663 CL5 79,0,0,0,0,0,0,0,0,#DIV/0!
0009664 CL5 80,84,0,24,24,0,40,40,64,37.50%
0009665 CO5 80,0,0,0,0,0,0,0,0,#DIV/0!
0009669 CL5 83,11,0,2,2,0,4,4,6,33.33%
0009671 CO0 85,0,0,0,0,0,0,0,0,#DIV/0!
0009672 CO0 86,18,0,2,2,0,5,5,7,28.57%
0009673 CO0 87,169,0,62,62,0,57,57,119,52.10%
0009674 CO0 88,159,0,43,43,0,58,58,101,42.57%
0009675 CO0 90,58,0,19,19,0,16,16,35,54.29%
0009676 CO0 91,134,0,38,38,0,58,58,96,39.58%
0009677 CO5 92,0,0,0,0,0,0,0,0,#DIV/0!
0009678 CO5 93,0,0,0,0,0,0,0,0,#DIV/0!
0009679 CO5 94,125,0,45,45,0,53,53,98,45.92%
0009680 CO5 94,362,0,154,154,0,112,112,266,57.89%
0009681 WC5 94,332,0,103,103,0,155,155,258,39.92%
0009682 CO5 95,3,0,0,0,0,3,3,3,0.00%
0009683 SN5 96,232,0,91,91,0,86,86,177,51.41%
0009684 WC5 96,160,0,54,54,0,70,70,124,43.55%
0009689 CO5 99,0,0,0,0,0,0,0,0,#DIV/0!
0009690 CO5 100,0,0,0,0,0,0,0,0,#DIV/0!
0009691 PO5 101,208,0,78,78,0,81,81,159,49.06%
0009692 PO5 101,2,0,0,0,0,1,1,1,0.00%
0009704 ES5 112,96,0,32,32,0,33,33,65,49.23%
0009705 ER5 113,28,0,14,14,0,6,6,20,70.00%
0009707 ES5 115,0,0,0,0,0,0,0,0,#DIV/0!
0009708 ES5 116,115,0,41,41,0,45,45,86,47.67%
0009709 ES5 117,21,0,9,9,0,4,4,13,69.23%
0009710 ES5 118,0,0,0,0,0,0,0,0,#DIV/0!
0009711 ES5 119,178,0,76,76,0,68,68,144,52.78%
0009712 ES5 120,16,0,6,6,0,7,7,13,46.15%
0009713 ES5 121,0,0,0,0,0,0,0,0,#DIV/0!
0009714 ES5 122,0,0,0,0,0,0,0,0,#DIV/0!
0009715 ES5 123,0,0,0,0,0,0,0,0,#DIV/0!
0009716 GT5 124,0,0,0,0,0,0,0,0,#DIV/0!
0009724 LA0 134,15,0,7,7,0,6,6,13,53.85%
0009725 LA0 135,0,0,0,0,0,0,0,0,#DIV/0!
0009726 LA0 136,23,0,8,8,0,12,12,20,40.00%
0009727 LA0 137,42,0,11,11,0,22,22,33,33.33%
0009729 LA5 139,0,0,0,0,0,0,0,0,#DIV/0!
0009730 WC5 139,107,0,28,28,0,50,50,78,35.90%
0009731 LT5 140,163,0,58,58,0,48,48,106,54.72%
0009732 PB5 141,1,0,0,0,0,0,0,0,#DIV/0!
0009734 LT5 143,0,0,0,0,0,0,0,0,#DIV/0!
0009735 LT5 144,0,0,0,0,0,0,0,0,#DIV/0!
0009738 LT5 147,0,0,0,0,0,0,0,0,#DIV/0!
0009742 VH5 152,205,0,79,79,0,60,60,139,56.83%
0009743 MV5 153,0,0,0,0,0,0,0,0,#DIV/0!
0009744 MV5 154,0,0,0,0,0,0,0,0,#DIV/0!
0009745 MZ0 156,0,0,0,0,0,0,0,0,#DIV/0!
0009746 MZ0 157,9,0,1,1,0,4,4,5,20.00%
0009747 MZ0 158,32,0,10,10,0,12,12,22,45.45%
0009748 MZ0 160,46,0,18,18,0,12,12,30,60.00%
0009749 MZ0 161,163,0,67,67,0,53,53,120,55.83%
0009750 MZ0 162,22,0,5,5,0,12,12,17,29.41%
0009751 MZ0 164,242,0,98,98,0,93,93,191,51.31%
0009752 PB5 168,8,0,5,5,0,0,0,5,100.00%
0009762 OL5 180,0,0,0,0,0,0,0,0,#DIV/0!
0009769 PB0 188,0,0,0,0,0,0,0,0,#DIV/0!
0009770 PB0 189,206,0,53,53,0,72,72,125,42.40%
0009771 PB0 190,0,0,0,0,0,0,0,0,#DIV/0!
0009772 PB0 191,0,0,0,0,0,0,0,0,#DIV/0!
0009773 PB0 192,0,0,0,0,0,0,0,0,#DIV/0!
0009774 PB0 193,354,0,144,144,0,96,96,240,60.00%
0009775 PB0 194,206,0,72,72,0,22,22,94,76.60%
0009776 PB0 196,0,0,0,0,0,0,0,0,#DIV/0!
0009777 PB0 197,17,0,11,11,0,3,3,14,78.57%
0009778 PB5 199,6,0,1,1,0,3,3,4,25.00%
0009779 PB5 200,0,0,0,0,0,0,0,0,#DIV/0!
0009781 PB5 202,0,0,0,0,0,0,0,0,#DIV/0!
0009782 PB5 203,0,0,0,0,0,0,0,0,#DIV/0!
0009784 PB5 205,0,0,0,0,0,0,0,0,#DIV/0!
0009786 PH0 208,0,0,0,0,0,0,0,0,#DIV/0!
0009787 PH0 209,0,0,0,0,0,0,0,0,#DIV/0!
0009788 PH5 211,261,0,93,93,0,71,71,164,56.71%
0009789 PI0 213,1,0,0,0,0,0,0,0,#DIV/0!
0009793 PI5 218,120,0,36,36,0,52,52,88,40.91%
0009807 SN5 231,6,0,0,0,0,5,5,5,0.00%
0009808 SP0 232,208,0,61,61,0,46,46,107,57.01%
0009809 SP0 233,2,0,1,1,0,1,1,2,50.00%
0009819 VH5 242,0,0,0,0,0,0,0,0,#DIV/0!
0009820 VH5 243,0,0,0,0,0,0,0,0,#DIV/0!
0009821 VH5 244,0,0,0,0,0,0,0,0,#DIV/0!
0009822 VH5 245,0,0,0,0,0,0,0,0,#DIV/0!
0009823 VH5 246,131,0,39,39,0,37,37,76,51.32%
0009824 WC0 247,306,0,113,113,0,128,128,241,46.89%
0009825 WC0 248,5,0,2,2,0,2,2,4,50.00%
0009826 WC0 248,402,0,166,166,0,114,114,280,59.29%
0009827 WC0 249,244,0,69,69,0,117,117,186,37.10%
0009828 WC0 249,232,0,75,75,0,90,90,165,45.45%
0009829 WC0 251,2,0,2,2,0,0,0,2,100.00%
0009830 WC0 252,0,0,0,0,0,0,0,0,#DIV/0!
0009832 WC0 255,2,0,2,2,0,0,0,2,100.00%
0009833 WC5 256,231,0,76,76,0,106,106,182,41.76%
0009834 WC5 257,7,0,0,0,0,6,6,6,0.00%
