CITY PRECINCT LIST
CITY,PRECINCTS
LA,0000276 LA0 135, 0000277 LA0 135, 0000278 LA0 135, 0000279 LA0 135, 0000280 LA0 137, 0000281 LA0 137, 0000282 LA0 137, 0000283 LA0 137, 0000284 LA0 137, 0000285 LA0 137, 0000286 LA0 137, 0000287 LA0 137, 0000288 LA0 137, 0000289 LA0 137, 0000290 LA0 137, 0009588 LA5 10, 0009724 LA0 134, 0009725 LA0 135, 0009726 LA0 136, 0009727 LA0 137, 0009729 LA5 139, 
PH,0000191 PH5 101, 0000192 PH5 101, 0000291 PH5 139, 0000401 PH0 207, 0000402 PH0 207, 0000403 PH0 207, 0000404 PH0 207, 0000405 PH0 207, 0000406 PH0 207, 0000407 PH0 207, 0000408 PH0 207, 0000409 PH0 207, 0000410 PH0 207, 0000411 PH0 207, 0000412 PH0 207, 0000413 PH0 207, 0000414 PH0 207, 0000415 PH0 207, 0000416 PH0 207, 0000417 PH0 207, 0000418 PH0 207, 0000419 PH0 209, 0000420 PH5 210, 0009584 PH5 7, 0009589 PH5 10, 0009786 PH0 208, 0009787 PH0 209, 0009788 PH5 211, 
NI,0000335 NI5 167, 0000336 NI5 167, 0009651 NI5 71, 
RW,0000252 RW5 112, 
ER,0000248 ER5 112, 0000249 ER5 112, 0000250 ER5 112, 0009705 ER5 113, 
PO,0000193 PO5 101, 0000194 PO5 101, 0009691 PO5 101, 0009692 PO5 101, 
CD,0000103 CD5 70, 0009650 CD5 71, 
NR,0000251 NR5 112, 
OL,0009762 OL5 180, 
GT,0000258 GT5 125, 0000259 GT5 125, 0000260 GT5 125, 0000261 GT5 125, 0009716 GT5 124, 
WC,0000183 WC5 96, 0000188 WC5 96, 0000189 WC5 96, 0000190 WC5 96, 0000195 WC5 101, 0000421 WC5 210, 0000531 WC0 247, 0000532 WC0 247, 0000533 WC0 247, 0000534 WC0 247, 0000535 WC0 247, 0000536 WC0 247, 0000537 WC0 247, 0000538 WC0 247, 0000539 WC0 247, 0000540 WC0 247, 0000541 WC0 247, 0000542 WC0 247, 0000543 WC0 247, 0000544 WC0 247, 0000545 WC0 248, 0000546 WC0 248, 0000547 WC0 248, 0000548 WC0 248, 0000549 WC0 248, 0000550 WC0 248, 0000551 WC0 248, 0000552 WC0 248, 0000553 WC0 248, 0000554 WC0 248, 0000555 WC0 248, 0000556 WC0 248, 0000557 WC0 248, 0000558 WC0 248, 0000559 WC0 248, 0000560 WC0 248, 0000561 WC0 248, 0000562 WC0 248, 0000563 WC0 248, 0000564 WC0 248, 0000565 WC0 249, 0000566 WC0 249, 0000567 WC0 249, 0000568 WC0 249, 0000569 WC0 249, 0000570 WC0 249, 0000571 WC0 249, 0000572 WC0 249, 0000573 WC0 249, 0000574 WC0 250, 0000575 WC0 250, 0000576 WC0 253, 0009681 WC5 94, 0009684 WC5 96, 0009730 WC5 139, 0009824 WC0 247, 0009825 WC0 248, 0009826 WC0 248, 0009827 WC0 249, 0009828 WC0 249, 0009829 WC0 251, 0009830 WC0 252, 0009832 WC0 255, 0009833 WC5 256, 0009834 WC5 257, 
AH,0009577 AH5 1, 0009578 AH5 2, 0009579 AH5 3, 0009580 AH5 4, 0009581 AH5 5, 0009582 AH5 6, 0009583 AH5 7, 0009585 AH5 8, 0009586 AH5 9, 0009587 AH5 9, 0009590 AH5 11, 0009591 AH5 12, 
MV,0000300 MV5 152, 0000301 MV5 152, 0009743 MV5 153, 0009744 MV5 154, 
CO,0000115 CO5 80, 0000116 CO0 87, 0000117 CO0 87, 0000118 CO0 87, 0000119 CO0 87, 0000120 CO0 87, 0000121 CO0 87, 0000122 CO0 87, 0000123 CO0 87, 0000124 CO0 87, 0000125 CO0 87, 0000126 CO0 87, 0000127 CO0 87, 0000128 CO0 87, 0000129 CO0 87, 0000130 CO0 87, 0000131 CO0 87, 0000132 CO0 87, 0000133 CO0 87, 0000134 CO0 87, 0000135 CO0 87, 0000136 CO0 87, 0000137 CO0 87, 0000138 CO0 87, 0000139 CO0 87, 0000140 CO0 87, 0000141 CO0 87, 0000142 CO0 87, 0000143 CO0 87, 0000144 CO0 87, 0000145 CO0 87, 0000146 CO0 87, 0000147 CO0 87, 0000148 CO0 87, 0000149 CO0 87, 0000150 CO0 87, 0000151 CO0 87, 0000152 CO0 87, 0000153 CO0 87, 0000154 CO0 87, 0000155 CO0 87, 0000156 CO0 87, 0000157 CO0 87, 0000158 CO0 87, 0000159 CO0 87, 0000160 CO0 87, 0000161 CO0 87, 0000162 CO0 87, 0000163 CO0 87, 0000164 CO0 87, 0000165 CO0 87, 0000166 CO0 87, 0000167 CO0 87, 0000168 CO0 87, 0000169 CO0 87, 0000170 CO0 87, 0000171 CO0 87, 0000172 CO0 87, 0000173 CO0 87, 0000174 CO0 87, 0000175 CO0 87, 0000176 CO0 87, 0000177 CO0 87, 0000178 CO0 88, 0000179 CO0 89, 0000180 CO0 89, 0000181 CO0 89, 0000182 CO0 89, 0009665 CO5 80, 0009671 CO0 85, 0009672 CO0 86, 0009673 CO0 87, 0009674 CO0 88, 0009675 CO0 90, 0009676 CO0 91, 0009677 CO5 92, 0009678 CO5 93, 0009679 CO5 94, 0009680 CO5 94, 0009682 CO5 95, 0009689 CO5 99, 0009690 CO5 100, 
PB,0000337 PB5 167, 0000338 PB5 167, 0000339 PB5 167, 0000340 PB5 167, 0000341 PB5 167, 0000342 PB5 167, 0000371 PB0 187, 0000372 PB0 187, 0000373 PB0 187, 0000374 PB0 187, 0000375 PB0 187, 0000376 PB0 187, 0000377 PB0 187, 0000378 PB0 187, 0000379 PB0 187, 0000380 PB0 187, 0000381 PB0 187, 0000382 PB0 187, 0000383 PB0 187, 0000384 PB0 187, 0000385 PB0 188, 0000386 PB0 188, 0000387 PB0 188, 0000388 PB0 189, 0000389 PB0 189, 0000390 PB0 192, 0000391 PB0 192, 0000392 PB0 192, 0000393 PB0 192, 0000394 PB0 192, 0000395 PB0 192, 0000396 PB0 195, 0000397 PB0 195, 0000398 PB0 195, 0000399 PB0 195, 0000400 PB5 198, 0009662 PB5 79, 0009732 PB5 141, 0009752 PB5 168, 0009769 PB0 188, 0009770 PB0 189, 0009771 PB0 190, 0009772 PB0 191, 0009773 PB0 192, 0009774 PB0 193, 0009775 PB0 194, 0009776 PB0 196, 0009777 PB0 197, 0009778 PB5 199, 0009779 PB5 200, 0009781 PB5 202, 0009782 PB5 203, 0009784 PB5 205, 
LT,0009731 LT5 140, 0009734 LT5 143, 0009735 LT5 144, 0009738 LT5 147, 
SN,0000184 SN5 96, 0000185 SN5 96, 0000186 SN5 96, 0000187 SN5 96, 0000484 SN5 231, 0009683 SN5 96, 0009807 SN5 231, 
AN,0000011 AN0 16, 0000012 AN0 16, 0000013 AN0 16, 0000014 AN0 16, 0000015 AN0 16, 0000016 AN0 16, 0000017 AN0 16, 0000018 AN0 16, 0000019 AN0 16, 0000020 AN0 16, 0000021 AN0 16, 0000022 AN0 16, 0000023 AN0 16, 0000024 AN0 18, 0000025 AN0 18, 0000026 AN0 18, 0000027 AN0 18, 0000028 AN0 18, 0000029 AN0 18, 0000030 AN0 18, 0000031 AN0 18, 0000032 AN0 18, 0000033 AN0 18, 0000034 AN0 18, 0000035 AN0 18, 0000036 AN0 19, 0000037 AN0 19, 0000038 AN0 19, 0000039 AN0 19, 0000040 AN0 21, 0000041 AN0 21, 0000042 AN0 21, 0000043 AN0 21, 0000044 AN0 21, 0000045 AN0 21, 0000046 AN0 22, 0000047 AN0 22, 0000048 AN0 22, 0000049 AN0 23, 0000050 AN0 23, 0000051 AN0 23, 0000052 AN0 23, 0000053 AN0 23, 0000054 AN0 23, 0000055 AN0 23, 0000056 AN0 23, 0000057 AN0 23, 0000058 AN0 27, 0000059 AN0 27, 0000060 AN0 30, 0000061 AN0 32, 0000062 AN0 33, 0009597 AN0 17, 0009598 AN0 18, 0009599 AN0 18, 0009600 AN0 19, 0009601 AN0 20, 0009602 AN0 21, 0009603 AN0 22, 0009604 AN0 23, 0009605 AN0 23, 0009606 AN0 24, 0009607 AN0 24, 0009608 AN0 25, 0009609 AN0 26, 0009610 AN0 28, 0009611 AN0 29, 0009612 AN0 31, 
SP,0000485 SP0 232, 0000486 SP0 232, 0000487 SP0 232, 0000488 SP0 232, 0000489 SP0 232, 0000490 SP0 232, 0000491 SP0 232, 0000492 SP0 232, 0000493 SP0 232, 0000494 SP0 232, 0009808 SP0 232, 0009809 SP0 233, 
PI,0009789 PI0 213, 0009793 PI5 218, 
MZ,0000304 MZ0 155, 0000305 MZ0 155, 0000306 MZ0 155, 0000307 MZ0 155, 0000308 MZ0 155, 0000309 MZ0 155, 0000310 MZ0 157, 0000311 MZ0 157, 0000312 MZ0 157, 0000313 MZ0 157, 0000314 MZ0 157, 0000315 MZ0 157, 0000316 MZ0 157, 0000317 MZ0 159, 0000318 MZ0 159, 0000319 MZ0 159, 0000320 MZ0 161, 0000321 MZ0 161, 0000322 MZ0 161, 0000323 MZ0 162, 0000324 MZ0 163, 0000325 MZ0 164, 0000326 MZ0 164, 0000327 MZ0 164, 0000328 MZ0 164, 0000329 MZ0 165, 0000330 MZ0 165, 0000331 MZ0 165, 0000332 MZ0 166, 0000333 MZ0 166, 0000334 MZ0 166, 0009745 MZ0 156, 0009746 MZ0 157, 0009747 MZ0 158, 0009748 MZ0 160, 0009749 MZ0 161, 0009750 MZ0 162, 0009751 MZ0 164, 
ES,0000253 ES5 115, 0000254 ES5 115, 0000255 ES5 115, 0000256 ES5 115, 0000257 ES5 115, 0009704 ES5 112, 0009707 ES5 115, 0009708 ES5 116, 0009709 ES5 117, 0009710 ES5 118, 0009711 ES5 119, 0009712 ES5 120, 0009713 ES5 121, 0009714 ES5 122, 0009715 ES5 123, 
CL,0000106 CL0 75, 0000107 CL0 75, 0000108 CL0 75, 0000109 CL0 75, 0000110 CL0 75, 0000111 CL0 75, 0000112 CL0 75, 0000113 CL0 75, 0000114 CL0 75, 0009655 CL0 76, 0009663 CL5 79, 0009664 CL5 80, 0009669 CL5 83, 
VH,0000302 VH5 152, 0000303 VH5 152, 0009742 VH5 152, 0009819 VH5 242, 0009820 VH5 243, 0009821 VH5 244, 0009822 VH5 245, 0009823 VH5 246, 
